<svg width="1184" height="329" viewBox="0 0 1184 329" fill="none" xmlns="http://www.w3.org/2000/svg">
<circle cx="163.99" cy="164.547" r="158.737" stroke="#F6F6F6" stroke-width="10.5047"/>
<path fill-rule="evenodd" clip-rule="evenodd" d="M169.242 282.902C167.501 282.978 165.75 283.017 163.99 283.017C98.5613 283.017 45.5208 229.976 45.5208 164.547C45.5208 99.1185 98.5613 46.0779 163.99 46.0779C229.419 46.0779 282.46 99.1185 282.46 164.547C282.46 220.951 243.042 268.148 190.252 280.096V290.846C248.889 278.716 292.964 226.779 292.964 164.547C292.964 93.3169 235.221 35.5732 163.99 35.5732C92.7598 35.5732 35.0161 93.3169 35.0161 164.547C35.0161 235.778 92.7598 293.521 163.99 293.521C165.749 293.521 167.5 293.486 169.242 293.416V282.902Z" fill="#A089FF"/>
<line x1="163.99" y1="293.521" x2="163.99" y2="214.104" stroke="#A089FF" stroke-width="10.5047"/>
<path d="M163.698 99.7686L163.698 135.971" stroke="#A089FF" stroke-width="7.58671"/>
<circle cx="163.943" cy="90.968" r="11.0883" transform="rotate(126 163.943 90.968)" stroke="#A089FF" stroke-width="7.00311"/>
<line x1="189.138" y1="125.999" x2="172.231" y2="142.902" stroke="#A089FF" stroke-width="7.58671"/>
<line x1="163.698" y1="160.462" x2="163.698" y2="196.645" stroke="#A089FF" stroke-width="7.58671"/>
<circle cx="163.991" cy="147.726" r="11.0883" transform="rotate(126 163.991 147.726)" stroke="#A089FF" stroke-width="7.00311"/>
<circle cx="195.364" cy="120.148" r="11.0883" transform="rotate(126 195.364 120.148)" stroke="#F6F6F6" stroke-width="7.00311"/>
<line y1="-3.79335" x2="23.9072" y2="-3.79335" transform="matrix(0.70719 0.707023 0.707023 -0.70719 141.524 123.315)" stroke="#A089FF" stroke-width="7.58671"/>
<circle r="11.0883" transform="matrix(0.587786 0.809017 0.809017 -0.587786 132.617 120.147)" stroke="#A089FF" stroke-width="7.00311"/>
<line x1="188.673" y1="183.099" x2="171.766" y2="200.002" stroke="#A089FF" stroke-width="7.58671"/>
<line y1="-3.79335" x2="23.9072" y2="-3.79335" transform="matrix(0.70719 0.707023 0.707023 -0.70719 203.806 180.416)" stroke="#A089FF" stroke-width="7.58671"/>
<circle r="11.0883" transform="matrix(0.587786 0.809017 0.809017 -0.587786 225.807 205.166)" stroke="#F6F6F6" stroke-width="7.00311"/>
<line x1="219.581" y1="155.18" x2="202.674" y2="172.083" stroke="#A089FF" stroke-width="7.58671"/>
<circle cx="194.899" cy="177.247" r="11.0883" transform="rotate(126 194.899 177.247)" stroke="#A089FF" stroke-width="7.00311"/>
<circle cx="225.807" cy="149.328" r="11.0883" transform="rotate(126 225.807 149.328)" stroke="#A089FF" stroke-width="7.00311"/>
<line y1="-3.79335" x2="23.9072" y2="-3.79335" transform="matrix(0.70719 0.707023 0.707023 -0.70719 141.989 180.416)" stroke="#A089FF" stroke-width="7.58671"/>
<line x1="126.856" y1="183.099" x2="109.949" y2="200.002" stroke="#A089FF" stroke-width="7.58671"/>
<circle cx="102.173" cy="205.166" r="11.0883" transform="rotate(126 102.173 205.166)" stroke="#A089FF" stroke-width="7.00311"/>
<line y1="-3.79335" x2="23.9072" y2="-3.79335" transform="matrix(0.70719 0.707023 0.707023 -0.70719 111.081 152.497)" stroke="#A089FF" stroke-width="7.58671"/>
<circle r="11.0883" transform="matrix(0.587786 0.809017 0.809017 -0.587786 133.081 177.247)" stroke="#F6F6F6" stroke-width="7.00311"/>
<circle r="11.0883" transform="matrix(0.587786 0.809017 0.809017 -0.587786 102.173 149.328)" stroke="#A089FF" stroke-width="7.00311"/>
<circle cx="163.991" cy="204.484" r="11.0883" transform="rotate(126 163.991 204.484)" stroke="#A089FF" stroke-width="7.00311"/>
<path d="M413.961 196.686C409.273 196.686 405.072 195.925 401.359 194.403C397.645 192.881 394.662 190.629 392.409 187.646C390.218 184.662 389.061 181.071 388.939 176.87H405.559C405.803 179.244 406.625 181.071 408.025 182.349C409.425 183.567 411.252 184.175 413.504 184.175C415.817 184.175 417.644 183.658 418.983 182.623C420.323 181.527 420.992 180.036 420.992 178.148C420.992 176.566 420.444 175.257 419.348 174.222C418.314 173.187 417.005 172.334 415.422 171.665C413.9 170.995 411.708 170.234 408.847 169.382C404.707 168.103 401.328 166.825 398.71 165.546C396.093 164.268 393.84 162.381 391.953 159.885C390.066 157.389 389.122 154.132 389.122 150.114C389.122 144.147 391.283 139.49 395.606 136.142C399.928 132.733 405.559 131.028 412.5 131.028C419.562 131.028 425.254 132.733 429.576 136.142C433.899 139.49 436.212 144.178 436.516 150.205H419.622C419.501 148.135 418.74 146.522 417.339 145.365C415.939 144.147 414.143 143.539 411.952 143.539C410.064 143.539 408.542 144.056 407.386 145.091C406.229 146.065 405.651 147.496 405.651 149.383C405.651 151.453 406.625 153.066 408.573 154.223C410.521 155.38 413.565 156.628 417.705 157.967C421.845 159.367 425.193 160.707 427.75 161.985C430.368 163.263 432.62 165.12 434.507 167.555C436.395 169.991 437.338 173.126 437.338 176.961C437.338 180.614 436.395 183.932 434.507 186.915C432.681 189.898 430.002 192.272 426.471 194.038C422.94 195.803 418.77 196.686 413.961 196.686ZM478.088 196.047L462.564 174.678V196.047H446.948V128.471H462.564V165.82L477.996 145.091H497.265L476.079 170.66L497.447 196.047H478.088ZM511.251 139.795C508.512 139.795 506.259 139.003 504.494 137.42C502.789 135.777 501.937 133.768 501.937 131.393C501.937 128.958 502.789 126.949 504.494 125.366C506.259 123.723 508.512 122.901 511.251 122.901C513.93 122.901 516.122 123.723 517.826 125.366C519.592 126.949 520.475 128.958 520.475 131.393C520.475 133.768 519.592 135.777 517.826 137.42C516.122 139.003 513.93 139.795 511.251 139.795ZM519.013 145.091V196.047H503.398V145.091H519.013ZM545.945 128.471V196.047H530.33V128.471H545.945ZM572.877 128.471V196.047H557.262V128.471H572.877ZM604.923 196.777C600.479 196.777 596.522 196.016 593.051 194.494C589.581 192.972 586.842 190.903 584.833 188.285C582.824 185.606 581.697 182.623 581.454 179.336H596.887C597.069 181.101 597.891 182.532 599.352 183.628C600.814 184.723 602.609 185.271 604.74 185.271C606.688 185.271 608.18 184.906 609.215 184.175C610.311 183.384 610.859 182.38 610.859 181.162C610.859 179.701 610.098 178.635 608.576 177.966C607.054 177.235 604.588 176.444 601.179 175.592C597.526 174.739 594.482 173.856 592.047 172.943C589.612 171.969 587.511 170.478 585.746 168.469C583.98 166.399 583.098 163.629 583.098 160.159C583.098 157.236 583.889 154.588 585.472 152.214C587.116 149.779 589.49 147.861 592.595 146.461C595.761 145.061 599.505 144.361 603.827 144.361C610.219 144.361 615.242 145.943 618.895 149.109C622.608 152.275 624.739 156.475 625.287 161.711H610.859C610.615 159.946 609.824 158.545 608.484 157.51C607.206 156.475 605.501 155.958 603.37 155.958C601.544 155.958 600.144 156.323 599.17 157.054C598.196 157.724 597.709 158.667 597.709 159.885C597.709 161.346 598.47 162.442 599.992 163.172C601.574 163.903 604.01 164.633 607.297 165.364C611.072 166.338 614.146 167.312 616.52 168.286C618.895 169.199 620.964 170.721 622.73 172.852C624.556 174.922 625.5 177.722 625.561 181.253C625.561 184.236 624.709 186.915 623.004 189.289C621.36 191.603 618.955 193.429 615.79 194.768C612.685 196.108 609.063 196.777 604.923 196.777Z" fill="#A089FF"/>
<path d="M712.817 196.047H702.407L671.085 148.653V196.047H660.674V132.489H671.085L702.407 179.792V132.489H712.817V196.047ZM772.604 169.656C772.604 171.543 772.482 173.248 772.239 174.77H733.793C734.098 178.788 735.589 182.014 738.268 184.449C740.947 186.885 744.234 188.102 748.13 188.102C753.731 188.102 757.688 185.758 760.002 181.071H771.234C769.712 185.697 766.942 189.502 762.924 192.485C758.967 195.408 754.036 196.869 748.13 196.869C743.321 196.869 738.999 195.803 735.163 193.673C731.389 191.481 728.406 188.437 726.214 184.541C724.083 180.584 723.018 176.018 723.018 170.843C723.018 165.668 724.053 161.133 726.123 157.236C728.253 153.279 731.206 150.235 734.981 148.105C738.816 145.974 743.199 144.908 748.13 144.908C752.879 144.908 757.11 145.943 760.824 148.013C764.537 150.083 767.429 153.005 769.499 156.78C771.569 160.494 772.604 164.785 772.604 169.656ZM761.737 166.368C761.676 162.533 760.306 159.459 757.628 157.145C754.949 154.832 751.631 153.675 747.674 153.675C744.082 153.675 741.008 154.832 738.451 157.145C735.894 159.398 734.372 162.472 733.885 166.368H761.737ZM794.994 154.223V182.075C794.994 183.962 795.42 185.332 796.272 186.184C797.186 186.976 798.708 187.372 800.838 187.372H807.231V196.047H799.012C794.324 196.047 790.732 194.951 788.236 192.759C785.74 190.568 784.492 187.006 784.492 182.075V154.223H778.557V145.73H784.492V133.22H794.994V145.73H807.231V154.223H794.994ZM884.401 145.73L868.786 196.047H857.828L847.691 158.88L837.555 196.047H826.597L810.89 145.73H821.483L831.984 186.184L842.669 145.73H853.536L863.763 186.002L874.174 145.73H884.401ZM914.006 196.869C909.258 196.869 904.966 195.803 901.13 193.673C897.295 191.481 894.282 188.437 892.09 184.541C889.898 180.584 888.802 176.018 888.802 170.843C888.802 165.729 889.929 161.194 892.181 157.236C894.434 153.279 897.508 150.235 901.404 148.105C905.301 145.974 909.654 144.908 914.463 144.908C919.272 144.908 923.625 145.974 927.522 148.105C931.418 150.235 934.492 153.279 936.745 157.236C938.997 161.194 940.123 165.729 940.123 170.843C940.123 175.957 938.967 180.492 936.653 184.449C934.34 188.407 931.174 191.481 927.156 193.673C923.199 195.803 918.816 196.869 914.006 196.869ZM914.006 187.828C916.685 187.828 919.181 187.189 921.495 185.911C923.869 184.632 925.786 182.714 927.248 180.157C928.709 177.601 929.439 174.496 929.439 170.843C929.439 167.19 928.739 164.116 927.339 161.62C925.939 159.063 924.082 157.145 921.768 155.867C919.455 154.588 916.959 153.949 914.28 153.949C911.602 153.949 909.106 154.588 906.792 155.867C904.54 157.145 902.744 159.063 901.404 161.62C900.065 164.116 899.395 167.19 899.395 170.843C899.395 176.261 900.765 180.462 903.505 183.445C906.305 186.367 909.806 187.828 914.006 187.828ZM960.825 153.036C962.347 150.479 964.356 148.5 966.852 147.1C969.409 145.639 972.422 144.908 975.893 144.908V155.684H973.244C969.165 155.684 966.061 156.719 963.93 158.789C961.86 160.859 960.825 164.451 960.825 169.564V196.047H950.415V145.73H960.825V153.036ZM1005.37 170.934L1028.56 196.047H1014.5L995.872 174.404V196.047H985.462V128.471H995.872V167.738L1014.14 145.73H1028.56L1005.37 170.934Z" fill="#F6F6F6"/>
</svg>
